EESchema Schematic File Version 4
LIBS:MR1_v3_LogicPW-cache
EELAYER 26 0
EELAYER END
$Descr A4 11693 8268
encoding utf-8
Sheet 1 1
Title ""
Date ""
Rev ""
Comp ""
Comment1 ""
Comment2 ""
Comment3 ""
Comment4 ""
$EndDescr
$Comp
L Connector_Generic:Conn_01x02 J1
U 1 1 5C662E47
P 950 2350
F 0 "J1" H 950 2150 50  0000 C CNN
F 1 "BattIN" H 950 2500 50  0000 C CNN
F 2 "Wire_Connections_Bridges:WireConnection_2.50mmDrill_LargePad" H 950 2350 50  0001 C CNN
F 3 "~" H 950 2350 50  0001 C CNN
	1    950  2350
	-1   0    0    1   
$EndComp
$Comp
L Connector_Generic:Conn_01x02 J6
U 1 1 5C662FF0
P 6050 2950
F 0 "J6" H 6130 2942 50  0000 L CNN
F 1 "F7_1" H 6130 2851 50  0000 L CNN
F 2 "Connectors_JST:JST_VH_B2P-VH_2x3.96mm_Vertical" H 6050 2950 50  0001 C CNN
F 3 "~" H 6050 2950 50  0001 C CNN
	1    6050 2950
	1    0    0    -1  
$EndComp
$Comp
L Connector_Generic:Conn_01x02 J9
U 1 1 5C663060
P 6800 5200
F 0 "J9" H 6880 5192 50  0000 L CNN
F 1 "Dynamixel" H 6880 5101 50  0000 L CNN
F 2 "Connectors_JST:JST_VH_B2P-VH_2x3.96mm_Vertical" H 6800 5200 50  0001 C CNN
F 3 "~" H 6800 5200 50  0001 C CNN
	1    6800 5200
	1    0    0    -1  
$EndComp
$Comp
L Connector_Generic:Conn_01x02 J4
U 1 1 5C66307E
P 8700 2850
F 0 "J4" H 8780 2842 50  0000 L CNN
F 1 "12V_DCDC_LiDAR" H 8780 2751 50  0000 L CNN
F 2 "Connectors_JST:JST_VH_B2P-VH_2x3.96mm_Vertical" H 8700 2850 50  0001 C CNN
F 3 "~" H 8700 2850 50  0001 C CNN
	1    8700 2850
	1    0    0    -1  
$EndComp
$Comp
L Connector_Generic:Conn_01x02 J7
U 1 1 5C6630A6
P 6600 2950
F 0 "J7" H 6680 2942 50  0000 L CNN
F 1 "F7_2" H 6680 2851 50  0000 L CNN
F 2 "Connectors_JST:JST_VH_B2P-VH_2x3.96mm_Vertical" H 6600 2950 50  0001 C CNN
F 3 "~" H 6600 2950 50  0001 C CNN
	1    6600 2950
	1    0    0    -1  
$EndComp
$Comp
L power:+BATT #PWR0101
U 1 1 5C663241
P 1450 2050
F 0 "#PWR0101" H 1450 1900 50  0001 C CNN
F 1 "+BATT" H 1465 2223 50  0000 C CNN
F 2 "" H 1450 2050 50  0001 C CNN
F 3 "" H 1450 2050 50  0001 C CNN
	1    1450 2050
	1    0    0    -1  
$EndComp
$Comp
L power:GND #PWR0102
U 1 1 5C663281
P 1450 2550
F 0 "#PWR0102" H 1450 2300 50  0001 C CNN
F 1 "GND" H 1455 2377 50  0000 C CNN
F 2 "" H 1450 2550 50  0001 C CNN
F 3 "" H 1450 2550 50  0001 C CNN
	1    1450 2550
	1    0    0    -1  
$EndComp
$Comp
L Device:CP1 C1
U 1 1 5CA8247D
P 1450 2300
F 0 "C1" H 1565 2346 50  0000 L CNN
F 1 "100u" H 1565 2255 50  0000 L CNN
F 2 "Capacitors_THT:CP_Radial_D5.0mm_P2.50mm" H 1450 2300 50  0001 C CNN
F 3 "~" H 1450 2300 50  0001 C CNN
	1    1450 2300
	1    0    0    -1  
$EndComp
Wire Wire Line
	1150 2250 1300 2250
Wire Wire Line
	1300 2250 1300 2150
Wire Wire Line
	1300 2150 1450 2150
Connection ~ 1450 2150
Wire Wire Line
	1150 2350 1300 2350
Wire Wire Line
	1300 2350 1300 2450
Wire Wire Line
	1300 2450 1450 2450
Wire Wire Line
	1450 2450 1450 2550
Connection ~ 1450 2450
$Comp
L power:GND #PWR0103
U 1 1 5CA832FB
P 5800 3250
F 0 "#PWR0103" H 5800 3000 50  0001 C CNN
F 1 "GND" H 5805 3077 50  0000 C CNN
F 2 "" H 5800 3250 50  0001 C CNN
F 3 "" H 5800 3250 50  0001 C CNN
	1    5800 3250
	1    0    0    -1  
$EndComp
$Comp
L power:+BATT #PWR0104
U 1 1 5CA83320
P 2250 1950
F 0 "#PWR0104" H 2250 1800 50  0001 C CNN
F 1 "+BATT" H 2265 2123 50  0000 C CNN
F 2 "" H 2250 1950 50  0001 C CNN
F 3 "" H 2250 1950 50  0001 C CNN
	1    2250 1950
	1    0    0    -1  
$EndComp
$Comp
L power:+BATT #PWR0105
U 1 1 5CA83A54
P 3650 4500
F 0 "#PWR0105" H 3650 4350 50  0001 C CNN
F 1 "+BATT" H 3665 4673 50  0000 C CNN
F 2 "" H 3650 4500 50  0001 C CNN
F 3 "" H 3650 4500 50  0001 C CNN
	1    3650 4500
	1    0    0    -1  
$EndComp
$Comp
L power:+BATT #PWR0106
U 1 1 5CA83A9A
P 6550 4150
F 0 "#PWR0106" H 6550 4000 50  0001 C CNN
F 1 "+BATT" H 6565 4323 50  0000 C CNN
F 2 "" H 6550 4150 50  0001 C CNN
F 3 "" H 6550 4150 50  0001 C CNN
	1    6550 4150
	1    0    0    -1  
$EndComp
Wire Wire Line
	3650 6150 3650 5850
$Comp
L Device:R R8
U 1 1 5CA86C5B
P 5200 2600
F 0 "R8" V 4993 2600 50  0000 C CNN
F 1 "100" V 5084 2600 50  0000 C CNN
F 2 "Resistors_SMD:R_0805_HandSoldering" V 5130 2600 50  0001 C CNN
F 3 "~" H 5200 2600 50  0001 C CNN
	1    5200 2600
	0    1    1    0   
$EndComp
$Comp
L Device:R R2
U 1 1 5CA87F4A
P 5450 2400
F 0 "R2" H 5380 2354 50  0000 R CNN
F 1 "100k" H 5380 2445 50  0000 R CNN
F 2 "Resistors_SMD:R_0603_HandSoldering" V 5380 2400 50  0001 C CNN
F 3 "~" H 5450 2400 50  0001 C CNN
	1    5450 2400
	-1   0    0    1   
$EndComp
$Comp
L power:GND #PWR0107
U 1 1 5CA8ACBF
P 8450 3150
F 0 "#PWR0107" H 8450 2900 50  0001 C CNN
F 1 "GND" H 8455 2977 50  0000 C CNN
F 2 "" H 8450 3150 50  0001 C CNN
F 3 "" H 8450 3150 50  0001 C CNN
	1    8450 3150
	1    0    0    -1  
$EndComp
$Comp
L Connector_Generic:Conn_01x02 J8
U 1 1 5C862ED5
P 1300 5100
F 0 "J8" H 1300 4900 50  0000 C CNN
F 1 "EmergeSW" H 1300 5200 50  0000 C CNN
F 2 "Connectors_JST:JST_XH_B02B-XH-A_02x2.50mm_Straight" H 1300 5100 50  0001 C CNN
F 3 "~" H 1300 5100 50  0001 C CNN
	1    1300 5100
	-1   0    0    -1  
$EndComp
Text GLabel 2050 5100 2    50   Output ~ 0
Emerg
Text GLabel 3250 5100 0    50   Input ~ 0
Emerg
Text GLabel 6200 4750 0    50   Input ~ 0
Emerg
$Comp
L Device:R R12
U 1 1 5C86F1A6
P 1750 5100
F 0 "R12" V 1543 5100 50  0000 C CNN
F 1 "100" V 1634 5100 50  0000 C CNN
F 2 "Resistors_SMD:R_0805_HandSoldering" V 1680 5100 50  0001 C CNN
F 3 "~" H 1750 5100 50  0001 C CNN
	1    1750 5100
	0    1    1    0   
$EndComp
$Comp
L power:GND #PWR0108
U 1 1 5C87EFC3
P 5050 2700
F 0 "#PWR0108" H 5050 2450 50  0001 C CNN
F 1 "GND" H 5055 2527 50  0000 C CNN
F 2 "" H 5050 2700 50  0001 C CNN
F 3 "" H 5050 2700 50  0001 C CNN
	1    5050 2700
	1    0    0    -1  
$EndComp
$Comp
L power:+BATT #PWR0109
U 1 1 5C8975E9
P 5500 7050
F 0 "#PWR0109" H 5500 6900 50  0001 C CNN
F 1 "+BATT" H 5515 7223 50  0000 C CNN
F 2 "" H 5500 7050 50  0001 C CNN
F 3 "" H 5500 7050 50  0001 C CNN
	1    5500 7050
	1    0    0    -1  
$EndComp
$Comp
L power:PWR_FLAG #FLG0101
U 1 1 5C897826
P 6000 7200
F 0 "#FLG0101" H 6000 7275 50  0001 C CNN
F 1 "PWR_FLAG" H 6000 7374 50  0000 C CNN
F 2 "" H 6000 7200 50  0001 C CNN
F 3 "~" H 6000 7200 50  0001 C CNN
	1    6000 7200
	-1   0    0    1   
$EndComp
$Comp
L power:PWR_FLAG #FLG0102
U 1 1 5C897864
P 5500 7200
F 0 "#FLG0102" H 5500 7275 50  0001 C CNN
F 1 "PWR_FLAG" H 5500 7373 50  0000 C CNN
F 2 "" H 5500 7200 50  0001 C CNN
F 3 "~" H 5500 7200 50  0001 C CNN
	1    5500 7200
	-1   0    0    1   
$EndComp
Wire Wire Line
	5500 7050 5500 7200
$Comp
L Device:Polyfuse F1
U 1 1 5C69BBB1
P 5800 2000
F 0 "F1" H 5888 2046 50  0000 L CNN
F 1 "Polyfuse" H 5888 1955 50  0000 L CNN
F 2 "MyKicadFP:Resettable_Fuses_Small" H 5850 1800 50  0001 L CNN
F 3 "~" H 5800 2000 50  0001 C CNN
	1    5800 2000
	1    0    0    -1  
$EndComp
Wire Wire Line
	5800 2950 5850 2950
Wire Wire Line
	5800 2800 6350 2800
Wire Wire Line
	5800 2800 5800 2950
$Comp
L power:+BATT #PWR0111
U 1 1 5C69FD0C
P 5800 1800
F 0 "#PWR0111" H 5800 1650 50  0001 C CNN
F 1 "+BATT" H 5815 1973 50  0000 C CNN
F 2 "" H 5800 1800 50  0001 C CNN
F 3 "" H 5800 1800 50  0001 C CNN
	1    5800 1800
	1    0    0    -1  
$EndComp
Wire Wire Line
	5850 3050 5800 3050
Wire Wire Line
	5800 3050 5800 3200
Wire Wire Line
	6400 3050 6350 3050
Wire Wire Line
	6400 2950 6350 2950
Wire Wire Line
	6350 2950 6350 2800
$Comp
L Device:Fuse F2
U 1 1 5C6B850B
P 6550 4350
F 0 "F2" H 6610 4396 50  0000 L CNN
F 1 "Fuse" H 6610 4305 50  0000 L CNN
F 2 "MyKicadFP:FUC-03A" V 6480 4350 50  0001 C CNN
F 3 "~" H 6550 4350 50  0001 C CNN
	1    6550 4350
	1    0    0    -1  
$EndComp
$Comp
L Device:Polyfuse F3
U 1 1 5C6BD875
P 3650 4700
F 0 "F3" H 3738 4746 50  0000 L CNN
F 1 "Polyfuse" H 3738 4655 50  0000 L CNN
F 2 "MyKicadFP:Resettable_Fuses_Small" H 3700 4500 50  0001 L CNN
F 3 "~" H 3650 4700 50  0001 C CNN
	1    3650 4700
	1    0    0    -1  
$EndComp
Wire Wire Line
	3650 4550 3650 4500
Wire Wire Line
	1450 2050 1450 2150
$Comp
L Regulator_Switching:CRE1S0305S3C U2
U 1 1 5C6C97BE
P 4250 5650
F 0 "U2" H 4250 6117 50  0000 C CNN
F 1 "24V_DCDC" H 4250 6026 50  0000 C CNN
F 2 "MyKicadFP:XL6009_DCDC_Module" H 4250 5250 50  0001 C CNN
F 3 "http://power.murata.com/datasheet?/data/power/ncl/kdc_cre1.pdf" H 4250 5150 50  0001 C CNN
	1    4250 5650
	1    0    0    -1  
$EndComp
Wire Wire Line
	3650 5450 3750 5450
Wire Wire Line
	3650 5850 3750 5850
Wire Wire Line
	4800 5450 4750 5450
Wire Wire Line
	4800 5850 4750 5850
Wire Wire Line
	6350 3050 6350 3200
Wire Wire Line
	5800 3200 6350 3200
$Comp
L Connector_Generic:Conn_01x02 J11
U 1 1 5C6FA540
P 5050 5600
F 0 "J11" H 5130 5592 50  0000 L CNN
F 1 "Valve" H 5130 5501 50  0000 L CNN
F 2 "Connectors_JST:JST_VH_B2P-VH_2x3.96mm_Vertical" H 5050 5600 50  0001 C CNN
F 3 "~" H 5050 5600 50  0001 C CNN
	1    5050 5600
	1    0    0    -1  
$EndComp
$Comp
L Device:C_Small C2
U 1 1 5C6C4BFF
P 7350 5500
F 0 "C2" H 7442 5546 50  0000 L CNN
F 1 "22u" H 7442 5455 50  0000 L CNN
F 2 "Resistors_SMD:R_1206_HandSoldering" H 7350 5500 50  0001 C CNN
F 3 "~" H 7350 5500 50  0001 C CNN
	1    7350 5500
	1    0    0    -1  
$EndComp
Wire Wire Line
	7350 5200 7350 5400
Wire Wire Line
	7350 5600 7350 6100
$Comp
L Device:R_Small R13
U 1 1 5C6E2F5E
P 7650 5500
F 0 "R13" H 7709 5546 50  0000 L CNN
F 1 "20k" H 7709 5455 50  0000 L CNN
F 2 "Resistors_SMD:R_0603_HandSoldering" H 7650 5500 50  0001 C CNN
F 3 "~" H 7650 5500 50  0001 C CNN
	1    7650 5500
	1    0    0    -1  
$EndComp
Wire Wire Line
	7350 5200 7650 5200
Wire Wire Line
	7650 5400 7650 5200
Connection ~ 7650 5200
Wire Wire Line
	7650 5200 7900 5200
Wire Wire Line
	7900 5300 7900 5800
Wire Wire Line
	7900 5800 7650 5800
Wire Wire Line
	7650 5800 7650 5600
Wire Wire Line
	7650 5800 7650 6100
Wire Wire Line
	7650 6100 7350 6100
Connection ~ 7650 5800
Wire Wire Line
	7650 6100 8800 6100
Wire Wire Line
	8800 6100 8800 6000
Connection ~ 7650 6100
Wire Wire Line
	8800 6100 8900 6100
Wire Wire Line
	8900 6100 8900 6000
Connection ~ 8800 6100
$Comp
L Device:R_Small R14
U 1 1 5C8FBA94
P 9250 5550
F 0 "R14" H 9309 5596 50  0000 L CNN
F 1 "1k" H 9309 5505 50  0000 L CNN
F 2 "Resistors_SMD:R_0603_HandSoldering" H 9250 5550 50  0001 C CNN
F 3 "~" H 9250 5550 50  0001 C CNN
	1    9250 5550
	1    0    0    -1  
$EndComp
$Comp
L Device:R_Small R16
U 1 1 5C90D045
P 9250 5800
F 0 "R16" H 9309 5846 50  0000 L CNN
F 1 "330" H 9309 5755 50  0000 L CNN
F 2 "Resistors_SMD:R_0603_HandSoldering" H 9250 5800 50  0001 C CNN
F 3 "~" H 9250 5800 50  0001 C CNN
	1    9250 5800
	1    0    0    -1  
$EndComp
Wire Wire Line
	8900 6100 9250 6100
Connection ~ 8900 6100
Wire Wire Line
	9200 5400 9250 5400
Wire Wire Line
	9250 5400 9250 5450
Wire Wire Line
	9250 5650 9250 5700
$Comp
L Device:C_Small C3
U 1 1 5CADE680
P 9500 5600
F 0 "C3" H 9592 5646 50  0000 L CNN
F 1 "10u" H 9592 5555 50  0000 L CNN
F 2 "Resistors_SMD:R_1206_HandSoldering" H 9500 5600 50  0001 C CNN
F 3 "~" H 9500 5600 50  0001 C CNN
	1    9500 5600
	1    0    0    -1  
$EndComp
Wire Wire Line
	9200 5200 9500 5200
Wire Wire Line
	9500 5200 9500 5500
Wire Wire Line
	9500 5700 9500 6100
Wire Wire Line
	9500 6100 9250 6100
Connection ~ 9250 6100
$Comp
L Device:R_Small R15
U 1 1 5CC10457
P 9800 5600
F 0 "R15" H 9859 5646 50  0000 L CNN
F 1 "1.2k" H 9859 5555 50  0000 L CNN
F 2 "Resistors_SMD:R_0603_HandSoldering" H 9800 5600 50  0001 C CNN
F 3 "~" H 9800 5600 50  0001 C CNN
	1    9800 5600
	1    0    0    -1  
$EndComp
Wire Wire Line
	9500 5200 9800 5200
Wire Wire Line
	9800 5200 9800 5500
Connection ~ 9500 5200
Wire Wire Line
	9800 5700 9800 6100
Wire Wire Line
	9800 6100 9500 6100
Connection ~ 9500 6100
Wire Wire Line
	9200 5300 9400 5300
Wire Wire Line
	9400 5300 9500 5200
NoConn ~ 8200 6000
NoConn ~ 8300 6000
Wire Wire Line
	9250 5900 9250 6100
Wire Wire Line
	6600 5300 6550 5300
Wire Wire Line
	6600 5200 6550 5200
$Comp
L Connector_Generic:Conn_01x02 J10
U 1 1 5C7715EC
P 10300 5550
F 0 "J10" H 10379 5542 50  0000 L CNN
F 1 "MG996R" H 10379 5451 50  0000 L CNN
F 2 "Connectors_JST:JST_VH_B2P-VH_2x3.96mm_Vertical" H 10300 5550 50  0001 C CNN
F 3 "~" H 10300 5550 50  0001 C CNN
	1    10300 5550
	1    0    0    -1  
$EndComp
Wire Wire Line
	4800 5700 4800 5850
Wire Wire Line
	4850 5700 4800 5700
Wire Wire Line
	4800 5450 4800 5600
Wire Wire Line
	4800 5600 4850 5600
Wire Wire Line
	9800 5200 10050 5200
Wire Wire Line
	10050 5200 10050 5550
Wire Wire Line
	10050 5550 10100 5550
Connection ~ 9800 5200
Wire Wire Line
	10100 5650 10050 5650
Wire Wire Line
	10050 5650 10050 6100
Wire Wire Line
	10050 6100 9800 6100
Connection ~ 9800 6100
$Comp
L Device:R R7
U 1 1 5C8481B2
P 7850 2500
F 0 "R7" V 7643 2500 50  0000 C CNN
F 1 "100" V 7734 2500 50  0000 C CNN
F 2 "Resistors_SMD:R_0805_HandSoldering" V 7780 2500 50  0001 C CNN
F 3 "~" H 7850 2500 50  0001 C CNN
	1    7850 2500
	0    1    1    0   
$EndComp
$Comp
L Device:R R1
U 1 1 5C853737
P 8100 2300
F 0 "R1" H 8030 2254 50  0000 R CNN
F 1 "100k" H 8030 2345 50  0000 R CNN
F 2 "Resistors_SMD:R_0603_HandSoldering" V 8030 2300 50  0001 C CNN
F 3 "~" H 8100 2300 50  0001 C CNN
	1    8100 2300
	-1   0    0    1   
$EndComp
Wire Wire Line
	8500 2950 8450 2950
Wire Wire Line
	8500 2850 8450 2850
$Comp
L power:+BATT #PWR0112
U 1 1 5C893F10
P 8450 2050
F 0 "#PWR0112" H 8450 1900 50  0001 C CNN
F 1 "+BATT" H 8465 2223 50  0000 C CNN
F 2 "" H 8450 2050 50  0001 C CNN
F 3 "" H 8450 2050 50  0001 C CNN
	1    8450 2050
	1    0    0    -1  
$EndComp
$Comp
L Device:R R11
U 1 1 5C86099B
P 1950 4900
F 0 "R11" H 1880 4854 50  0000 R CNN
F 1 "100k" H 1880 4945 50  0000 R CNN
F 2 "Resistors_SMD:R_0603_HandSoldering" V 1880 4900 50  0001 C CNN
F 3 "~" H 1950 4900 50  0001 C CNN
	1    1950 4900
	-1   0    0    1   
$EndComp
Wire Wire Line
	1500 5100 1600 5100
$Comp
L SamacSys_Parts:OKL-T_6-W12N-C U1
U 1 1 5CF46014
P 7900 5200
F 0 "U1" H 8550 5465 50  0000 C CNN
F 1 "OKL-T_6-W12N-C" H 8550 5374 50  0000 C CNN
F 2 "MyKicadFP:OKL_T6_W12" H 7950 6900 50  0001 L CNN
F 3 "http://www.mouser.com/ds/2/281/okl-t6-w12-21493.pdf" H 7950 6800 50  0001 L CNN
F 4 "MURATA POWER SOLUTIONS - OKL-T/6-W12N-C - DC/DC CONVERTER, 30W, ADJ OUTPUT" H 7950 6700 50  0001 L CNN "Description"
F 5 "Murata Electronics" H 7950 6500 50  0001 L CNN "Manufacturer_Name"
F 6 "OKL-T/6-W12N-C" H 7950 6400 50  0001 L CNN "Manufacturer_Part_Number"
F 7 "1736944P" H 7950 6300 50  0001 L CNN "RS Part Number"
F 8 "http://uk.rs-online.com/web/p/products/1736944P" H 7950 6200 50  0001 L CNN "RS Price/Stock"
F 9 "580-OKL-T/6-W12N-C" H 7950 6100 50  0001 L CNN "Mouser Part Number"
F 10 "https://www.mouser.com/Search/Refine.aspx?Keyword=580-OKL-T%2F6-W12N-C" H 7950 6000 50  0001 L CNN "Mouser Price/Stock"
	1    7900 5200
	1    0    0    -1  
$EndComp
$Comp
L power:GND #PWR0113
U 1 1 5CFCF28C
P 6550 5350
F 0 "#PWR0113" H 6550 5100 50  0001 C CNN
F 1 "GND" H 6555 5177 50  0000 C CNN
F 2 "" H 6550 5350 50  0001 C CNN
F 3 "" H 6550 5350 50  0001 C CNN
	1    6550 5350
	1    0    0    -1  
$EndComp
$Comp
L power:GND #PWR0114
U 1 1 5CFD6719
P 3650 6150
F 0 "#PWR0114" H 3650 5900 50  0001 C CNN
F 1 "GND" H 3655 5977 50  0000 C CNN
F 2 "" H 3650 6150 50  0001 C CNN
F 3 "" H 3650 6150 50  0001 C CNN
	1    3650 6150
	1    0    0    -1  
$EndComp
Wire Wire Line
	6550 4150 6550 4200
Wire Wire Line
	5800 3200 5800 3250
Connection ~ 5800 3200
Wire Wire Line
	5800 1800 5800 1850
Wire Wire Line
	8450 2950 8450 3150
Wire Wire Line
	8000 2500 8100 2500
$Comp
L Device:Q_PMOS_GDS Q4
U 1 1 5CF92F09
P 3550 5100
F 0 "Q4" H 3755 5054 50  0000 L CNN
F 1 "STD46P4LLF6" H 3755 5145 50  0000 L CNN
F 2 "TO_SOT_Packages_SMD:TO-252-2_Rectifier" H 3750 5200 50  0001 C CNN
F 3 "~" H 3550 5100 50  0001 C CNN
	1    3550 5100
	1    0    0    1   
$EndComp
$Comp
L Device:Q_PMOS_GDS Q3
U 1 1 5CF954FF
P 6450 4750
F 0 "Q3" H 6655 4704 50  0000 L CNN
F 1 "STD46P4LLF6" H 6655 4795 50  0000 L CNN
F 2 "TO_SOT_Packages_SMD:TO-252-2_Rectifier" H 6650 4850 50  0001 C CNN
F 3 "~" H 6450 4750 50  0001 C CNN
	1    6450 4750
	1    0    0    1   
$EndComp
$Comp
L Device:Q_PMOS_GDS Q2
U 1 1 5CF9585B
P 5700 2600
F 0 "Q2" H 5905 2554 50  0000 L CNN
F 1 "STD46P4LLF6" H 5905 2645 50  0000 L CNN
F 2 "TO_SOT_Packages_SMD:TO-252-2_Rectifier" H 5900 2700 50  0001 C CNN
F 3 "~" H 5700 2600 50  0001 C CNN
	1    5700 2600
	1    0    0    1   
$EndComp
Connection ~ 5800 2800
$Comp
L Device:Q_PMOS_GDS Q1
U 1 1 5CF95931
P 8350 2500
F 0 "Q1" H 8555 2454 50  0000 L CNN
F 1 "STD46P4LLF6" H 8555 2545 50  0000 L CNN
F 2 "TO_SOT_Packages_SMD:TO-252-2_Rectifier" H 8550 2600 50  0001 C CNN
F 3 "~" H 8350 2500 50  0001 C CNN
	1    8350 2500
	1    0    0    1   
$EndComp
$Comp
L power:GND #PWR0115
U 1 1 5CFAFC56
P 7700 2600
F 0 "#PWR0115" H 7700 2350 50  0001 C CNN
F 1 "GND" H 7705 2427 50  0000 C CNN
F 2 "" H 7700 2600 50  0001 C CNN
F 3 "" H 7700 2600 50  0001 C CNN
	1    7700 2600
	1    0    0    -1  
$EndComp
$Comp
L power:GND #PWR0116
U 1 1 5CFB3EC6
P 1600 5200
F 0 "#PWR0116" H 1600 4950 50  0001 C CNN
F 1 "GND" H 1605 5027 50  0000 C CNN
F 2 "" H 1600 5200 50  0001 C CNN
F 3 "" H 1600 5200 50  0001 C CNN
	1    1600 5200
	1    0    0    -1  
$EndComp
Wire Wire Line
	8450 2700 8450 2800
Wire Wire Line
	6250 4750 6200 4750
Wire Wire Line
	3650 5450 3650 5350
Wire Wire Line
	5800 2150 5800 2250
Wire Wire Line
	5450 2250 5800 2250
Connection ~ 5800 2250
Wire Wire Line
	5800 2250 5800 2400
Wire Wire Line
	5500 2600 5450 2600
Wire Wire Line
	5450 2550 5450 2600
Connection ~ 5450 2600
Wire Wire Line
	5450 2600 5350 2600
Wire Wire Line
	6550 5300 6550 5350
Wire Wire Line
	6550 4950 6550 5000
Wire Wire Line
	7350 5200 7350 5000
Wire Wire Line
	7350 5000 6550 5000
Connection ~ 7350 5200
$Comp
L power:GND #PWR0117
U 1 1 5CFFBA1E
P 7350 6150
F 0 "#PWR0117" H 7350 5900 50  0001 C CNN
F 1 "GND" H 7355 5977 50  0000 C CNN
F 2 "" H 7350 6150 50  0001 C CNN
F 3 "" H 7350 6150 50  0001 C CNN
	1    7350 6150
	1    0    0    -1  
$EndComp
Wire Wire Line
	7350 6150 7350 6100
Connection ~ 7350 6100
Wire Wire Line
	6550 5200 6550 5000
Connection ~ 6550 5000
Wire Wire Line
	1500 5200 1600 5200
$Comp
L Connector_Generic:Conn_01x02 J3
U 1 1 5D086009
P 4750 2600
F 0 "J3" H 4750 2400 50  0000 C CNN
F 1 "LogicSW" H 4750 2700 50  0000 C CNN
F 2 "Connectors_JST:JST_XH_B02B-XH-A_02x2.50mm_Straight" H 4750 2600 50  0001 C CNN
F 3 "~" H 4750 2600 50  0001 C CNN
	1    4750 2600
	-1   0    0    -1  
$EndComp
$Comp
L Connector_Generic:Conn_01x02 J2
U 1 1 5D086194
P 7450 2500
F 0 "J2" H 7450 2300 50  0000 C CNN
F 1 "LiDARSW" H 7450 2600 50  0000 C CNN
F 2 "Connectors_JST:JST_XH_B02B-XH-A_02x2.50mm_Straight" H 7450 2500 50  0001 C CNN
F 3 "~" H 7450 2500 50  0001 C CNN
	1    7450 2500
	-1   0    0    -1  
$EndComp
Wire Wire Line
	8100 2450 8100 2500
Connection ~ 8100 2500
Wire Wire Line
	8100 2500 8150 2500
Wire Wire Line
	8450 2050 8450 2150
Wire Wire Line
	8450 2150 8100 2150
Connection ~ 8450 2150
Wire Wire Line
	8450 2150 8450 2300
Wire Wire Line
	7650 2500 7700 2500
Wire Wire Line
	7700 2600 7650 2600
Wire Wire Line
	4950 2700 5050 2700
Wire Wire Line
	4950 2600 5050 2600
$Comp
L Device:LED D1
U 1 1 5D0C7D7E
P 2250 2150
F 0 "D1" V 2288 2033 50  0000 R CNN
F 1 "Batt" V 2197 2033 50  0000 R CNN
F 2 "LEDs:LED_0805" H 2250 2150 50  0001 C CNN
F 3 "~" H 2250 2150 50  0001 C CNN
	1    2250 2150
	0    -1   -1   0   
$EndComp
$Comp
L Device:R R3
U 1 1 5D0C7F6D
P 2250 2500
F 0 "R3" V 2043 2500 50  0000 C CNN
F 1 "3.3k" V 2134 2500 50  0000 C CNN
F 2 "Resistors_SMD:R_0805_HandSoldering" V 2180 2500 50  0001 C CNN
F 3 "~" H 2250 2500 50  0001 C CNN
	1    2250 2500
	-1   0    0    1   
$EndComp
$Comp
L power:GND #PWR0118
U 1 1 5D0C8073
P 2250 2700
F 0 "#PWR0118" H 2250 2450 50  0001 C CNN
F 1 "GND" H 2255 2527 50  0000 C CNN
F 2 "" H 2250 2700 50  0001 C CNN
F 3 "" H 2250 2700 50  0001 C CNN
	1    2250 2700
	1    0    0    -1  
$EndComp
Wire Wire Line
	2250 2650 2250 2700
Wire Wire Line
	2250 2350 2250 2300
Wire Wire Line
	2250 2000 2250 1950
$Comp
L Device:LED D4
U 1 1 5D0EC465
P 3800 2150
F 0 "D4" V 3838 2033 50  0000 R CNN
F 1 "Logic" V 3747 2033 50  0000 R CNN
F 2 "Connectors_JST:JST_XH_B02B-XH-A_02x2.50mm_Straight" H 3800 2150 50  0001 C CNN
F 3 "~" H 3800 2150 50  0001 C CNN
	1    3800 2150
	0    -1   -1   0   
$EndComp
$Comp
L Device:R R6
U 1 1 5D0EC46C
P 3800 2500
F 0 "R6" V 3593 2500 50  0000 C CNN
F 1 "3.3k" V 3684 2500 50  0000 C CNN
F 2 "Resistors_SMD:R_0805_HandSoldering" V 3730 2500 50  0001 C CNN
F 3 "~" H 3800 2500 50  0001 C CNN
	1    3800 2500
	-1   0    0    1   
$EndComp
$Comp
L power:GND #PWR0119
U 1 1 5D0EC473
P 3800 2700
F 0 "#PWR0119" H 3800 2450 50  0001 C CNN
F 1 "GND" H 3805 2527 50  0000 C CNN
F 2 "" H 3800 2700 50  0001 C CNN
F 3 "" H 3800 2700 50  0001 C CNN
	1    3800 2700
	1    0    0    -1  
$EndComp
Wire Wire Line
	3800 2650 3800 2700
Wire Wire Line
	3800 2350 3800 2300
$Comp
L Device:LED D2
U 1 1 5D0EFF91
P 2750 2150
F 0 "D2" V 2788 2032 50  0000 R CNN
F 1 "LiDAR" V 2697 2032 50  0000 R CNN
F 2 "LEDs:LED_0805" H 2750 2150 50  0001 C CNN
F 3 "~" H 2750 2150 50  0001 C CNN
	1    2750 2150
	0    -1   -1   0   
$EndComp
$Comp
L Device:R R4
U 1 1 5D0EFF98
P 2750 2500
F 0 "R4" V 2543 2500 50  0000 C CNN
F 1 "3.3k" V 2634 2500 50  0000 C CNN
F 2 "Resistors_SMD:R_0805_HandSoldering" V 2680 2500 50  0001 C CNN
F 3 "~" H 2750 2500 50  0001 C CNN
	1    2750 2500
	-1   0    0    1   
$EndComp
$Comp
L power:GND #PWR0120
U 1 1 5D0EFF9F
P 2750 2700
F 0 "#PWR0120" H 2750 2450 50  0001 C CNN
F 1 "GND" H 2755 2527 50  0000 C CNN
F 2 "" H 2750 2700 50  0001 C CNN
F 3 "" H 2750 2700 50  0001 C CNN
	1    2750 2700
	1    0    0    -1  
$EndComp
Wire Wire Line
	2750 2650 2750 2700
Wire Wire Line
	2750 2350 2750 2300
$Comp
L Device:LED D3
U 1 1 5D0F4017
P 3250 2150
F 0 "D3" V 3288 2033 50  0000 R CNN
F 1 "Actuator" V 3197 2033 50  0000 R CNN
F 2 "LEDs:LED_0805" H 3250 2150 50  0001 C CNN
F 3 "~" H 3250 2150 50  0001 C CNN
	1    3250 2150
	0    -1   -1   0   
$EndComp
$Comp
L Device:R R5
U 1 1 5D0F401E
P 3250 2500
F 0 "R5" V 3043 2500 50  0000 C CNN
F 1 "3.3k" V 3134 2500 50  0000 C CNN
F 2 "Resistors_SMD:R_0805_HandSoldering" V 3180 2500 50  0001 C CNN
F 3 "~" H 3250 2500 50  0001 C CNN
	1    3250 2500
	-1   0    0    1   
$EndComp
$Comp
L power:GND #PWR0121
U 1 1 5D0F4025
P 3250 2700
F 0 "#PWR0121" H 3250 2450 50  0001 C CNN
F 1 "GND" H 3255 2527 50  0000 C CNN
F 2 "" H 3250 2700 50  0001 C CNN
F 3 "" H 3250 2700 50  0001 C CNN
	1    3250 2700
	1    0    0    -1  
$EndComp
Wire Wire Line
	3250 2650 3250 2700
Wire Wire Line
	3250 2350 3250 2300
Text GLabel 8350 2800 0    50   Output ~ 0
LiDARPW
Text GLabel 5700 2800 0    50   Output ~ 0
LogicPW
Wire Wire Line
	8350 2800 8450 2800
Connection ~ 8450 2800
Wire Wire Line
	8450 2800 8450 2850
Wire Wire Line
	5700 2800 5800 2800
Text GLabel 3550 5350 0    50   Output ~ 0
ActPW
Wire Wire Line
	3550 5350 3650 5350
Connection ~ 3650 5350
Wire Wire Line
	3650 5350 3650 5300
Text GLabel 3250 1900 0    50   Input ~ 0
ActPW
Text GLabel 3800 1900 0    50   Input ~ 0
LogicPW
Text GLabel 2750 1900 0    50   Input ~ 0
LiDARPW
Wire Wire Line
	3800 1900 3800 2000
Wire Wire Line
	2750 1900 2750 2000
Wire Wire Line
	3250 1900 3250 2000
$Comp
L Connector_Generic:Conn_01x02 J5
U 1 1 5D16BBAD
P 10500 2850
F 0 "J5" H 10580 2842 50  0000 L CNN
F 1 "Hub" H 10580 2751 50  0000 L CNN
F 2 "Connectors_JST:JST_VH_B2P-VH_2x3.96mm_Vertical" H 10500 2850 50  0001 C CNN
F 3 "~" H 10500 2850 50  0001 C CNN
	1    10500 2850
	1    0    0    -1  
$EndComp
$Comp
L power:GND #PWR0122
U 1 1 5D16BC3B
P 10300 3150
F 0 "#PWR0122" H 10300 2900 50  0001 C CNN
F 1 "GND" H 10305 2977 50  0000 C CNN
F 2 "" H 10300 3150 50  0001 C CNN
F 3 "" H 10300 3150 50  0001 C CNN
	1    10300 3150
	1    0    0    -1  
$EndComp
$Comp
L power:+BATT #PWR0123
U 1 1 5D16BC9C
P 9750 2300
F 0 "#PWR0123" H 9750 2150 50  0001 C CNN
F 1 "+BATT" H 9765 2473 50  0000 C CNN
F 2 "" H 9750 2300 50  0001 C CNN
F 3 "" H 9750 2300 50  0001 C CNN
	1    9750 2300
	1    0    0    -1  
$EndComp
Wire Wire Line
	10300 2650 10300 2850
Wire Wire Line
	10300 2950 10300 3150
$Comp
L Switch:SW_SPDT SW1
U 1 1 5D176712
P 10000 2550
F 0 "SW1" H 10000 2835 50  0000 C CNN
F 1 "HubSW" H 10000 2744 50  0000 C CNN
F 2 "MyKicadFP:ToggleSW_3pin" H 10000 2550 50  0001 C CNN
F 3 "" H 10000 2550 50  0001 C CNN
	1    10000 2550
	1    0    0    -1  
$EndComp
Wire Wire Line
	10300 2650 10200 2650
Wire Wire Line
	9800 2550 9750 2550
Wire Wire Line
	9750 2550 9750 2300
Text Notes 9700 1850 0    100  ~ 0
Hub
Text Notes 7500 1850 0    100  ~ 0
LiDAR
Text Notes 4750 1500 0    100  ~ 0
Logic
Text Notes 5700 3750 0    100  ~ 0
Servo
Text Notes 2950 4050 0    100  ~ 0
Valve
Text Notes 900  1750 0    100  ~ 0
DC IN
Text Notes 2200 1600 0    100  ~ 0
Pilot LED
Wire Notes Line
	2200 1550 2100 1550
Wire Notes Line
	2100 1550 2100 3000
Wire Notes Line
	2100 3000 4100 3000
Wire Notes Line
	4100 3000 4100 1550
Wire Notes Line
	4100 1550 2900 1550
Wire Notes Line
	900  1700 800  1700
Wire Notes Line
	800  1700 800  3000
Wire Notes Line
	800  3000 1800 3000
Wire Notes Line
	1800 3000 1800 1700
Wire Notes Line
	1800 1700 1350 1700
Wire Notes Line
	2950 4000 2600 4000
Wire Notes Line
	2600 4000 2600 6400
Wire Notes Line
	2600 6400 5400 6400
Wire Notes Line
	5400 6400 5400 4000
Wire Notes Line
	5400 4000 3350 4000
Wire Notes Line
	5700 3700 5500 3700
Wire Notes Line
	5500 3700 5500 6400
Wire Notes Line
	5500 6400 10750 6400
Wire Notes Line
	10750 6400 10750 3700
Wire Notes Line
	10750 3700 6100 3700
Wire Notes Line
	4700 1450 4550 1450
Wire Notes Line
	4550 1450 4550 3500
Wire Notes Line
	4550 3500 6900 3500
Wire Notes Line
	6900 3500 6900 1450
Wire Notes Line
	6900 1450 5200 1450
Wire Notes Line
	7450 1800 7250 1800
Wire Notes Line
	7250 1800 7250 3500
Wire Notes Line
	7250 3500 9450 3500
Wire Notes Line
	9450 3500 9450 1800
Wire Notes Line
	9450 1800 7950 1800
Wire Notes Line
	9700 1800 9600 1800
Wire Notes Line
	9600 1800 9600 3500
Wire Notes Line
	9600 3500 10800 3500
Wire Notes Line
	10800 3500 10800 1800
Wire Notes Line
	10800 1800 10000 1800
NoConn ~ 10200 2450
Text GLabel 5950 6950 0    50   Output ~ 0
ActPW
Wire Wire Line
	5950 6950 6000 6950
Wire Wire Line
	6000 6950 6000 7200
$Comp
L power:PWR_FLAG #FLG0103
U 1 1 5D2543F2
P 6350 7050
F 0 "#FLG0103" H 6350 7125 50  0001 C CNN
F 1 "PWR_FLAG" H 6350 7224 50  0000 C CNN
F 2 "" H 6350 7050 50  0001 C CNN
F 3 "~" H 6350 7050 50  0001 C CNN
	1    6350 7050
	1    0    0    -1  
$EndComp
$Comp
L power:GND #PWR0110
U 1 1 5D2545E1
P 6350 7200
F 0 "#PWR0110" H 6350 6950 50  0001 C CNN
F 1 "GND" H 6355 7027 50  0000 C CNN
F 2 "" H 6350 7200 50  0001 C CNN
F 3 "" H 6350 7200 50  0001 C CNN
	1    6350 7200
	1    0    0    -1  
$EndComp
Wire Wire Line
	6350 7050 6350 7200
Wire Wire Line
	2050 5100 1950 5100
$Comp
L power:+BATT #PWR01
U 1 1 5D284354
P 1950 4700
F 0 "#PWR01" H 1950 4550 50  0001 C CNN
F 1 "+BATT" H 1965 4873 50  0000 C CNN
F 2 "" H 1950 4700 50  0001 C CNN
F 3 "" H 1950 4700 50  0001 C CNN
	1    1950 4700
	1    0    0    -1  
$EndComp
Wire Wire Line
	1950 5100 1950 5050
Connection ~ 1950 5100
Wire Wire Line
	1950 5100 1900 5100
Wire Wire Line
	1950 4700 1950 4750
Wire Wire Line
	3650 4850 3650 4900
Wire Wire Line
	3250 5100 3350 5100
Wire Wire Line
	6550 4500 6550 4550
$EndSCHEMATC
